Practical Machine Learning Assignment
…
We find several numerical variables with > 90% missing values and delete them

We remove the first variables from ‘X’ to ‘num_window’ as they provide no value for the prediction

We remove the remaining character variables as they almost only empty cells

har_train %>%
  gather(col, value) %>%
  group_by(col) %>%
  dplyr::summarize(missing_share = mean(is.na(value))) %>%
  arrange(desc(missing_share)) %>%
  print(n = 5)

## # A tibble: 160 × 2
##   col                      missing_share
##   <chr>                            <dbl>
## 1 amplitude_pitch_arm              0.979
## 2 amplitude_pitch_belt             0.979
## 3 amplitude_pitch_dumbbell         0.979
## 4 amplitude_pitch_forearm          0.979
## 5 amplitude_roll_arm               0.979
## # … with 155 more rows
…
Correlations

The correlations between the classe and the explanatory variables are quite low (max: 0.34)

However, the relationship might be non-linear

cormatrix <- cor(plot_vars, as.numeric(har_train_cl$classe), method = 'pearson')

cors <- tibble(Variable = rownames(cormatrix), cor = cormatrix[,1])
cors %>% arrange(desc(abs(cor))) %>% print(n = 4)

## # A tibble: 52 × 2
##   Variable         cor
##   <chr>          <dbl>
## 1 pitch_forearm  0.344
## 2 magnet_arm_x   0.296
## 3 magnet_belt_y -0.290
## 4 magnet_arm_y  -0.257
## # … with 48 more rows
…
